<svg 
 xmlns="http://www.w3.org/2000/svg"
 xmlns:xlink="http://www.w3.org/1999/xlink"
 width="34px" height="14px">
<path fill-rule="evenodd"  stroke="#c29167" stroke-width="2px" stroke-linecap="butt" stroke-linejoin="miter" fill="none"
 d="M31.219,10.140 L4.037,10.140 L10.954,2.358 "/>
</svg>